%YAML 1.1
%TAG !u! tag:unity3d.com,2011:
--- !u!114 &11400000
MonoBehaviour:
  m_ObjectHideFlags: 0
  m_CorrespondingSourceObject: {fileID: 0}
  m_PrefabInstance: {fileID: 0}
  m_PrefabAsset: {fileID: 0}
  m_GameObject: {fileID: 0}
  m_Enabled: 1
  m_EditorHideFlags: 0
  m_Script: {fileID: 11500000, guid: b18011015abdcfa4b9acfb03bd22394f, type: 3}
  m_Name: Artist0
  m_EditorClassIdentifier: 
  serializationData:
    SerializedFormat: 2
    SerializedBytes: 
    ReferencedUnityObjects:
    - {fileID: 11400000, guid: 7eb157eb758400d41bf4e6fad2910d55, type: 2}
    SerializedBytesString: 
    Prefab: {fileID: 0}
    PrefabModificationsReferencedUnityObjects: []
    PrefabModifications: []
    SerializationNodes:
    - Name: _learningRequirements
      Entry: 7
      Data: 0|System.Collections.Generic.Dictionary`2[[DreamingArts.GameDevLife.Learning,
        Assembly-CSharp],[System.Int32, mscorlib]], mscorlib
    - Name: comparer
      Entry: 7
      Data: 1|System.Collections.Generic.ObjectEqualityComparer`1[[DreamingArts.GameDevLife.Learning,
        Assembly-CSharp]], mscorlib
    - Name: 
      Entry: 8
      Data: 
    - Name: 
      Entry: 12
      Data: 1
    - Name: 
      Entry: 7
      Data: 
    - Name: $k
      Entry: 10
      Data: 0
    - Name: $v
      Entry: 3
      Data: 24
    - Name: 
      Entry: 8
      Data: 
    - Name: 
      Entry: 13
      Data: 
    - Name: 
      Entry: 8
      Data: 
    - Name: _jobRequirements
      Entry: 7
      Data: 2|System.Collections.Generic.Dictionary`2[[DreamingArts.GameDevLife.Job,
        Assembly-CSharp],[System.Int32, mscorlib]], mscorlib
    - Name: comparer
      Entry: 7
      Data: 3|System.Collections.Generic.ObjectEqualityComparer`1[[DreamingArts.GameDevLife.Job,
        Assembly-CSharp]], mscorlib
    - Name: 
      Entry: 8
      Data: 
    - Name: 
      Entry: 12
      Data: 0
    - Name: 
      Entry: 13
      Data: 
    - Name: 
      Entry: 8
      Data: 
  _name: Free art work
  _description: Working free is not happy :(
  _deathPlace: at home
  _lifeCost: 12
  _happinessCost: 30
  _salary: 0
