%YAML 1.1
%TAG !u! tag:unity3d.com,2011:
--- !u!114 &11400000
MonoBehaviour:
  m_ObjectHideFlags: 0
  m_CorrespondingSourceObject: {fileID: 0}
  m_PrefabInstance: {fileID: 0}
  m_PrefabAsset: {fileID: 0}
  m_GameObject: {fileID: 0}
  m_Enabled: 1
  m_EditorHideFlags: 0
  m_Script: {fileID: 11500000, guid: 9d2109daf00e19a4e8262ea655a81226, type: 3}
  m_Name: BornButton_Normal
  m_EditorClassIdentifier: 
  _bottomColor: {r: 1, g: 0.6, b: 0.8842106, a: 1}
  _strokeColor: {r: 1, g: 0.8, b: 0.9421053, a: 1}
  _baseColor: {r: 1, g: 0.44313726, b: 0.78039217, a: 1}
  _baseTextColor: {r: 1, g: 1, b: 1, a: 1}
  _innerPanelColor: {r: 1, g: 1, b: 1, a: 1}
  _innerPanelTextColor: {r: 1, g: 1, b: 1, a: 1}
