%YAML 1.1
%TAG !u! tag:unity3d.com,2011:
--- !u!114 &11400000
MonoBehaviour:
  m_ObjectHideFlags: 0
  m_CorrespondingSourceObject: {fileID: 0}
  m_PrefabInstance: {fileID: 0}
  m_PrefabAsset: {fileID: 0}
  m_GameObject: {fileID: 0}
  m_Enabled: 1
  m_EditorHideFlags: 0
  m_Script: {fileID: 11500000, guid: 9d2109daf00e19a4e8262ea655a81226, type: 3}
  m_Name: SectionButton_Pressed
  m_EditorClassIdentifier: 
  _bottomColor: {r: 0.32000002, g: 0.32000002, b: 0.32000002, a: 1}
  _strokeColor: {r: 0.454902, g: 0.454902, b: 0.454902, a: 1}
  _baseColor: {r: 0.27607843, g: 0.27607843, b: 0.27607843, a: 1}
  _baseTextColor: {r: 0.8, g: 0.8, b: 0.8, a: 1}
  _innerPanelColor: {r: 0.8, g: 0.8, b: 0.8, a: 1}
  _innerPanelTextColor: {r: 0.8, g: 0.8, b: 0.8, a: 1}
